An R data package containing the status of state action on the ACA Medicaid expansion decision • aca.medicaid.expansion
…
# Data
aca.medicaid.expansion::status
#> # A tibble: 51 x 6
#>    fips  usps  state       expansion_date expansion_status   description        
#>    <chr> <chr> <chr>       <date>         <chr>              <chr>              
#>  1 01    AL    Alabama     NA             Not Adopted        <NA>               
#>  2 02    AK    Alaska      2015-09-01     Adopted and Imple… Implemented expans…
#>  3 04    AZ    Arizona     2014-01-01     Adopted and Imple… Implemented expans…
#>  4 05    AR    Arkansas    2014-01-01     Adopted and Imple… Implemented expans…
#>  5 06    CA    California  2014-01-01     Adopted and Imple… Implemented expans…
#>  6 08    CO    Colorado    2014-01-01     Adopted and Imple… Implemented expans…
#>  7 09    CT    Connecticut 2014-01-01     Adopted and Imple… Implemented expans…
#>  8 10    DE    Delaware    2014-01-01     Adopted and Imple… Implemented expans…
#>  9 11    DC    District o… 2014-01-01     Adopted and Imple… Implemented expans…
#> 10 12    FL    Florida     NA             Not Adopted        <NA>               
#> # … with 41 more rows
…
aca.medicaid.expansion::status %>%
    add_st_yr_dummy(bgn_yr = 2010, end_yr = 2020) %>% 
    select(usps, year, expansion) %>% 
    print() -> st_yr_expansion
#> # A tibble: 561 x 3
#>    usps   year expansion
#>    <chr> <int> <lgl>    
#>  1 AL     2010 FALSE    
#>  2 AL     2011 FALSE    
#>  3 AL     2012 FALSE    
#>  4 AL     2013 FALSE    
#>  5 AL     2014 FALSE    
#>  6 AL     2015 FALSE    
#>  7 AL     2016 FALSE    
#>  8 AL     2017 FALSE    
#>  9 AL     2018 FALSE    
#> 10 AL     2019 FALSE    
#> # … with 551 more rows
…
